"Boss"	"PlayerName"	"Specialization"	"BuildType"	"TotalDPS"	"PowerDPS"	"CondiDPS"	"KillTime"	"Subgroup"	"Date"	"Weapons"	"Aegis"	"Fury"	"Might"	"Protection"	"Quickness"	"Regeneration"	"Resistance"	"Retaliation"	"Stability"	"Swiftness"	"Vigor"	"Strength in Numbers"	"Virtue of Resolve"	"Signet of Resolve"	"Bane Signet"	"Signet of Judgment"	"Signet of Wrath"	"Signet of Mercy"	"Signet of Courage"	"Wrath of Justice"	"Assassin's Presence"	"Naturalistic Resonance"	"Rite of the Great Dwarf"	"Banner of Strength"	"Banner of Tactics"	"Banner of Discipline"	"Banner of Defense"	"Empower Allies"	"Pinpoint Distribution"	"Water Spirit"	"Spirit of Frost"	"Stone Spirit"	"Storm Spirit"	"Sun Spirit"	"Spirit of Nature"	"Spotter"	"Grace of the Land"	"Glyph of Empowerment"	"Soothing Mist"	"Alacrity"	"Illusion of Defense"	"Vampiric Presence"
"dei"	"blitzcreek.7019"	"Holosmith"	"Po."	20613	18407	2206	365.1	1	"20171025"	"Rifle"	"28%"	"99%"	24	"80%"	"91%"	"-"	"-"	"6%"	"-"	"-"	"-"	"-"	"-"	"-"	"-"	"-"	"-"	"-"	"-"	"-"	"9%"	"0%"	"-"	"57%"	"-"	"70%"	"-"	"100%"	"99%"	"-"	"62%"	"60%"	"-"	"25%"	"-"	"100%"	3	"24%"	"-"	"51%"	"-"	"-"
"dei"	"sleepysoul.5743"	"Weaver"	"Po."	20047	18457	1590	365.1	1	"20171025"	"Staff"	"23%"	"100%"	23.6	"93%"	"85%"	"-"	"-"	"27%"	"-"	"-"	"-"	"-"	"-"	"-"	"-"	"-"	"-"	"-"	"-"	"-"	"11%"	"1%"	"-"	"63%"	"-"	"70%"	"-"	"100%"	"99%"	"-"	"65%"	"65%"	"-"	"19%"	"-"	"100%"	3	"24%"	"-"	"47%"	"-"	"-"
"dei"	"MereLynn.9625"	"Berserker"	"CD."	14768	2429	12340	365.1	2	"20171025"	"Longbow,SwordMain,TorchOff"	"5%"	"99%"	22.6	"71%"	"85%"	"-"	"-"	"5%"	"-"	"-"	"-"	"-"	"-"	"-"	"-"	"-"	"-"	"-"	"-"	"-"	"5%"	"0%"	"-"	"59%"	"-"	"72%"	"-"	"100%"	"25%"	"-"	"54%"	"61%"	"-"	"62%"	"-"	"99%"	3.2	"2%"	"-"	"43%"	"-"	"-"
"dei"	"Burkid.4178"	"Soulbeast"	"CD."	10867	1562	9305	365.1	2	"20171025"	"Shortbow,TorchOff,DaggerMain"	"1%"	"77%"	18.7	"72%"	"68%"	"-"	"-"	"5%"	"-"	"-"	"-"	"-"	"-"	"-"	"-"	"-"	"-"	"-"	"-"	"-"	"6%"	"1%"	"-"	"42%"	"-"	"54%"	"-"	"77%"	"13%"	"-"	"42%"	"50%"	"-"	"48%"	"-"	"77%"	2.6	"2%"	"-"	"33%"	"-"	"-"
"dei"	"Vice.3164"	"Berserker"	"CD."	9254	1648	7606	365.1	1	"20171025"	"Longbow,SwordMain,TorchOff"	"25%"	"99%"	23.4	"81%"	"85%"	"-"	"-"	"12%"	"-"	"-"	"-"	"-"	"-"	"-"	"-"	"-"	"-"	"-"	"-"	"-"	"1%"	"0%"	"-"	"61%"	"-"	"71%"	"-"	"100%"	"99%"	"-"	"70%"	"60%"	"-"	"31%"	"-"	"100%"	3.2	"22%"	"-"	"39%"	"-"	"-"
"dei"	"Trindine.4076"	"Chronomancer"	"Po."	4373	4120	253	365.1	2	"20171025"	"SwordMain,FocusOff,ShieldOff"	"9%"	"100%"	23.7	"81%"	"84%"	"-"	"-"	"10%"	"-"	"-"	"-"	"-"	"-"	"-"	"-"	"-"	"-"	"-"	"-"	"-"	"9%"	"1%"	"-"	"61%"	"-"	"73%"	"-"	"100%"	"18%"	"-"	"52%"	"64%"	"-"	"62%"	"-"	"99%"	3.3	"3%"	"-"	"70%"	"-"	"-"
"dei"	"kratox.3675"	"Chronomancer"	"To.HP."	3213	3035	177	365.1	1	"20171025"	"SwordMain,SwordOff,ShieldOff"	"31%"	"99%"	19.4	"78%"	"74%"	"-"	"-"	"9%"	"-"	"-"	"-"	"-"	"-"	"-"	"-"	"-"	"-"	"-"	"-"	"-"	"8%"	"0%"	"-"	"58%"	"-"	"78%"	"-"	"86%"	"86%"	"-"	"69%"	"69%"	"-"	"22%"	"-"	"85%"	2.1	"17%"	"-"	"68%"	"-"	"-"
"dei"	"Anhim.3156"	"Druid"	"HP."	1627	1421	206	365.1	1	"20171025"	"Staff"	"22%"	"100%"	23.9	"86%"	"83%"	"-"	"-"	"5%"	"-"	"-"	"-"	"-"	"-"	"-"	"-"	"-"	"-"	"-"	"-"	"-"	"12%"	"1%"	"-"	"61%"	"-"	"72%"	"-"	"100%"	"99%"	"-"	"76%"	"62%"	"-"	"27%"	"-"	"100%"	3.4	"24%"	"-"	"42%"	"-"	"-"
"dei"	"Elestian.6134"	"Druid"	"HP."	1400	1147	253	365.1	2	"20171025"	"AxeMain,WarhornOff,Staff"	"11%"	"99%"	23.2	"75%"	"84%"	"-"	"-"	"5%"	"-"	"-"	"-"	"-"	"-"	"-"	"-"	"-"	"-"	"-"	"-"	"-"	"12%"	"0%"	"-"	"59%"	"-"	"73%"	"-"	"100%"	"12%"	"-"	"57%"	"59%"	"-"	"62%"	"-"	"99%"	3.2	"2%"	"-"	"45%"	"-"	"-"
"dei"	"Evil Andrex.8160"	"Herald"	"To.HP."	670	635	35	365.1	3	"20171025"	"Hammer,ShieldOff"	"0%"	"20%"	4.6	"61%"	"0%"	"-"	"-"	"0%"	"-"	"-"	"-"	"-"	"-"	"-"	"-"	"-"	"-"	"-"	"-"	"-"	"100%"	"27%"	"-"	"10%"	"-"	"4%"	"-"	"1%"	"0%"	"-"	"13%"	"14%"	"-"	"9%"	"-"	"1%"	0.8	"0%"	"-"	"1%"	"-"	"-"
