"Boss"	"PlayerName"	"Specialization"	"BuildType"	"TotalDPS"	"PowerDPS"	"CondiDPS"	"KillTime"	"Subgroup"	"Date"	"Weapons"	"Aegis"	"Fury"	"Might"	"Protection"	"Quickness"	"Regeneration"	"Resistance"	"Retaliation"	"Stability"	"Swiftness"	"Vigor"	"Strength in Numbers"	"Virtue of Resolve"	"Signet of Resolve"	"Bane Signet"	"Signet of Judgment"	"Signet of Wrath"	"Signet of Mercy"	"Signet of Courage"	"Wrath of Justice"	"Assassin's Presence"	"Naturalistic Resonance"	"Rite of the Great Dwarf"	"Banner of Strength"	"Banner of Tactics"	"Banner of Discipline"	"Banner of Defense"	"Empower Allies"	"Pinpoint Distribution"	"Water Spirit"	"Spirit of Frost"	"Stone Spirit"	"Storm Spirit"	"Sun Spirit"	"Spirit of Nature"	"Spotter"	"Grace of the Land"	"Glyph of Empowerment"	"Soothing Mist"	"Alacrity"	"Illusion of Defense"	"Vampiric Presence"
"xera"	"Evil Andrex.8160"	"Weaver"	"Po."	13371	12328	1043	332.2	2	"20171025"	"Staff"	"0%"	"97%"	21.5	"68%"	"64%"	"-"	"-"	"28%"	"-"	"-"	"-"	"-"	"-"	"-"	"-"	"-"	"-"	"-"	"-"	"-"	"-"	"-"	"-"	"45%"	"-"	"86%"	"-"	"100%"	"-"	"-"	"74%"	"-"	"-"	"81%"	"-"	"95%"	2.8	"29%"	"-"	"48%"	"-"	"-"
"xera"	"blitzcreek.7019"	"Weaver"	"Po."	11353	10622	731	332.2	2	"20171025"	"Staff"	"8%"	"97%"	19.8	"59%"	"65%"	"-"	"-"	"11%"	"-"	"-"	"-"	"-"	"-"	"-"	"-"	"-"	"-"	"-"	"-"	"-"	"-"	"-"	"-"	"47%"	"-"	"74%"	"-"	"97%"	"-"	"-"	"65%"	"-"	"-"	"63%"	"-"	"98%"	2.6	"25%"	"-"	"51%"	"-"	"-"
"xera"	"MereLynn.9625"	"Berserker"	"CD."	9944	1535	8409	332.2	2	"20171025"	"Longbow,SwordMain,TorchOff"	"0%"	"97%"	21	"60%"	"71%"	"-"	"-"	"11%"	"-"	"-"	"-"	"-"	"-"	"-"	"-"	"-"	"-"	"-"	"-"	"-"	"-"	"-"	"-"	"48%"	"-"	"77%"	"-"	"100%"	"-"	"-"	"75%"	"-"	"-"	"71%"	"-"	"96%"	2.8	"27%"	"-"	"48%"	"-"	"-"
"xera"	"Burkid.4178"	"Scourge"	"CD."	9842	1178	8664	332.2	1	"20171025"	"ScepterMain,TorchOff"	"4%"	"94%"	22.2	"53%"	"65%"	"-"	"-"	"5%"	"-"	"-"	"-"	"-"	"-"	"-"	"-"	"-"	"-"	"-"	"-"	"-"	"-"	"-"	"-"	"46%"	"-"	"81%"	"-"	"100%"	"-"	"-"	"70%"	"-"	"-"	"73%"	"-"	"95%"	2.8	"25%"	"-"	"55%"	"-"	"-"
"xera"	"sleepysoul.5743"	"Weaver"	"Po."	8921	8319	602	332.2	1	"20171025"	"Staff"	"6%"	"95%"	22.2	"47%"	"59%"	"-"	"-"	"14%"	"-"	"-"	"-"	"-"	"-"	"-"	"-"	"-"	"-"	"-"	"-"	"-"	"-"	"-"	"-"	"47%"	"-"	"84%"	"-"	"99%"	"-"	"-"	"53%"	"-"	"-"	"65%"	"-"	"91%"	2.4	"21%"	"-"	"44%"	"-"	"-"
"xera"	"Vice.3164"	"Berserker"	"CD."	8195	1281	6914	332.2	1	"20171025"	"Longbow,SwordMain,TorchOff"	"11%"	"94%"	21.7	"37%"	"68%"	"-"	"-"	"0%"	"-"	"-"	"-"	"-"	"-"	"-"	"-"	"-"	"-"	"-"	"-"	"-"	"-"	"-"	"-"	"47%"	"-"	"82%"	"-"	"100%"	"-"	"-"	"58%"	"-"	"-"	"66%"	"-"	"95%"	2.7	"22%"	"-"	"47%"	"-"	"-"
"xera"	"Elestian.6134"	"Druid"	"CD."	5510	1283	4227	332.2	2	"20171025"	"Shortbow,AxeMain,TorchOff"	"1%"	"97%"	20.1	"56%"	"58%"	"-"	"-"	"11%"	"-"	"-"	"-"	"-"	"-"	"-"	"-"	"-"	"-"	"-"	"-"	"-"	"-"	"-"	"-"	"47%"	"-"	"75%"	"-"	"96%"	"-"	"-"	"64%"	"-"	"-"	"63%"	"-"	"100%"	2.6	"25%"	"-"	"48%"	"-"	"-"
"xera"	"Trindine.4076"	"Chronomancer"	"To."	2930	2747	183	332.2	2	"20171025"	"SwordMain,FocusOff,ShieldOff"	"6%"	"97%"	20.8	"54%"	"60%"	"-"	"-"	"17%"	"-"	"-"	"-"	"-"	"-"	"-"	"-"	"-"	"-"	"-"	"-"	"-"	"-"	"-"	"-"	"47%"	"-"	"68%"	"-"	"100%"	"-"	"-"	"65%"	"-"	"-"	"63%"	"-"	"100%"	2.6	"25%"	"-"	"73%"	"-"	"-"
"xera"	"kratox.3675"	"Chronomancer"	"To.HP."	2077	1915	161	332.2	1	"20171025"	"SwordMain,FocusOff,ShieldOff"	"5%"	"75%"	18.9	"47%"	"58%"	"-"	"-"	"0%"	"-"	"-"	"-"	"-"	"-"	"-"	"-"	"-"	"-"	"-"	"-"	"-"	"-"	"-"	"-"	"41%"	"-"	"71%"	"-"	"83%"	"-"	"-"	"54%"	"-"	"-"	"60%"	"-"	"75%"	2.2	"21%"	"-"	"62%"	"-"	"-"
"xera"	"Anhim.3156"	"Druid"	"HP."	1710	1469	241	332.2	1	"20171025"	"Staff"	"4%"	"93%"	20.4	"43%"	"60%"	"-"	"-"	"2%"	"-"	"-"	"-"	"-"	"-"	"-"	"-"	"-"	"-"	"-"	"-"	"-"	"-"	"-"	"-"	"48%"	"-"	"77%"	"-"	"91%"	"-"	"-"	"67%"	"-"	"-"	"69%"	"-"	"100%"	2.8	"25%"	"-"	"47%"	"-"	"-"
