"Boss"	"PlayerName"	"Specialization"	"BuildType"	"TotalDPS"	"PowerDPS"	"CondiDPS"	"KillTime"	"Subgroup"	"Date"	"Weapons"	"Aegis"	"Fury"	"Might"	"Protection"	"Quickness"	"Regeneration"	"Resistance"	"Retaliation"	"Stability"	"Swiftness"	"Vigor"	"Strength in Numbers"	"Virtue of Resolve"	"Signet of Resolve"	"Bane Signet"	"Signet of Judgment"	"Signet of Wrath"	"Signet of Mercy"	"Signet of Courage"	"Wrath of Justice"	"Assassin's Presence"	"Naturalistic Resonance"	"Rite of the Great Dwarf"	"Banner of Strength"	"Banner of Tactics"	"Banner of Discipline"	"Banner of Defense"	"Empower Allies"	"Pinpoint Distribution"	"Water Spirit"	"Spirit of Frost"	"Stone Spirit"	"Storm Spirit"	"Sun Spirit"	"Spirit of Nature"	"Spotter"	"Grace of the Land"	"Glyph of Empowerment"	"Soothing Mist"	"Alacrity"	"Illusion of Defense"	"Vampiric Presence"
"kc"	"blitzcreek.7019"	"Weaver"	"Po."	25810	24854	957	457	2	"20171025"	"Staff"	"13%"	"92%"	16.8	"5%"	"52%"	"-"	"-"	"0%"	"-"	"-"	"-"	"-"	"-"	"-"	"-"	"-"	"-"	"-"	"-"	"-"	"-"	"-"	"-"	"53%"	"-"	"48%"	"-"	"97%"	"-"	"-"	"59%"	"-"	"-"	"61%"	"-"	"91%"	2.3	"14%"	"-"	"34%"	"-"	"-"
"kc"	"Evil Andrex.8160"	"Weaver"	"Po."	22521	21510	1011	457	2	"20171025"	"Staff"	"12%"	"96%"	16.3	"2%"	"49%"	"-"	"-"	"0%"	"-"	"-"	"-"	"-"	"-"	"-"	"-"	"-"	"-"	"-"	"-"	"-"	"-"	"-"	"-"	"57%"	"-"	"49%"	"-"	"98%"	"-"	"-"	"60%"	"-"	"-"	"61%"	"-"	"95%"	2.5	"15%"	"-"	"35%"	"-"	"-"
"kc"	"Burkid.4178"	"Weaver"	"Po."	19286	18772	513	457	1	"20171025"	"Staff"	"0%"	"100%"	19.4	"5%"	"45%"	"-"	"-"	"0%"	"-"	"-"	"-"	"-"	"-"	"-"	"-"	"-"	"-"	"-"	"-"	"-"	"-"	"-"	"-"	"54%"	"-"	"49%"	"-"	"98%"	"-"	"-"	"48%"	"-"	"-"	"48%"	"-"	"91%"	2.4	"16%"	"-"	"29%"	"-"	"-"
"kc"	"sleepysoul.5743"	"Weaver"	"Po."	18026	17412	614	457	1	"20171025"	"Staff"	"0%"	"100%"	18.4	"7%"	"52%"	"-"	"-"	"0%"	"-"	"-"	"-"	"-"	"-"	"-"	"-"	"-"	"-"	"-"	"-"	"-"	"-"	"-"	"-"	"57%"	"-"	"44%"	"-"	"95%"	"-"	"-"	"43%"	"-"	"-"	"50%"	"-"	"95%"	2.2	"20%"	"-"	"30%"	"-"	"-"
"kc"	"MereLynn.9625"	"Berserker"	"CD."	10381	2273	8108	457	2	"20171025"	"Longbow,SwordMain,TorchOff"	"11%"	"99%"	16.3	"2%"	"57%"	"-"	"-"	"0%"	"-"	"-"	"-"	"-"	"-"	"-"	"-"	"-"	"-"	"-"	"-"	"-"	"-"	"-"	"-"	"56%"	"-"	"48%"	"-"	"100%"	"-"	"-"	"56%"	"-"	"-"	"57%"	"-"	"96%"	2.3	"16%"	"-"	"37%"	"-"	"-"
"kc"	"Vice.3164"	"Berserker"	"CD."	7290	1633	5657	457	1	"20171025"	"Longbow,SwordMain,TorchOff"	"0%"	"99%"	18	"4%"	"53%"	"-"	"-"	"0%"	"-"	"-"	"-"	"-"	"-"	"-"	"-"	"-"	"-"	"-"	"-"	"-"	"-"	"-"	"-"	"59%"	"-"	"49%"	"-"	"100%"	"-"	"-"	"46%"	"-"	"-"	"46%"	"-"	"95%"	2.5	"20%"	"-"	"36%"	"-"	"-"
"kc"	"Elestian.6134"	"Druid"	"CD."	5983	2125	3858	457	2	"20171025"	"Shortbow,AxeMain,TorchOff"	"12%"	"96%"	15.5	"8%"	"46%"	"-"	"-"	"0%"	"-"	"-"	"-"	"-"	"-"	"-"	"-"	"-"	"-"	"-"	"-"	"-"	"-"	"-"	"-"	"58%"	"-"	"47%"	"-"	"97%"	"-"	"-"	"63%"	"-"	"-"	"63%"	"-"	"100%"	2.7	"16%"	"-"	"31%"	"-"	"-"
"kc"	"Trindine.4076"	"Chronomancer"	"To."	5378	5155	222	457	2	"20171025"	"SwordMain,FocusOff,ShieldOff"	"19%"	"97%"	17.6	"4%"	"55%"	"-"	"-"	"3%"	"-"	"-"	"-"	"-"	"-"	"-"	"-"	"-"	"-"	"-"	"-"	"-"	"-"	"-"	"-"	"59%"	"-"	"49%"	"-"	"99%"	"-"	"-"	"62%"	"-"	"-"	"63%"	"-"	"97%"	2.4	"16%"	"-"	"63%"	"-"	"-"
"kc"	"kratox.3675"	"Chronomancer"	"To.HP."	2995	2868	126	457	1	"20171025"	"SwordMain,FocusOff,ShieldOff"	"0%"	"99%"	17.6	"8%"	"59%"	"-"	"-"	"3%"	"-"	"-"	"-"	"-"	"-"	"-"	"-"	"-"	"-"	"-"	"-"	"-"	"-"	"-"	"-"	"54%"	"-"	"44%"	"-"	"95%"	"-"	"-"	"42%"	"-"	"-"	"47%"	"-"	"95%"	2.3	"20%"	"-"	"53%"	"-"	"-"
"kc"	"Anhim.3156"	"Druid"	"HP."	1475	1340	135	457	1	"20171025"	"Staff"	"0%"	"98%"	15.6	"6%"	"48%"	"-"	"-"	"0%"	"-"	"-"	"-"	"-"	"-"	"-"	"-"	"-"	"-"	"-"	"-"	"-"	"-"	"-"	"-"	"56%"	"-"	"44%"	"-"	"94%"	"-"	"-"	"43%"	"-"	"-"	"43%"	"-"	"100%"	2.4	"22%"	"-"	"29%"	"-"	"-"
